lab1/assignment/rtl/mips.vcd
$date
	Fri Feb  5 19:15:03 2021
$end
$version
	Icarus Verilog
$end
$timescale
	1s
$end
$scope module mips_tb $end
$scope module mips $end
$scope module fetch $end
$var reg 32 ! \iram[0] [0:31] $end
$upscope $end
$upscope $end
$upscope $end
$scope module mips_tb $end
$scope module mips $end
$scope module fetch $end
$var reg 32 " \iram[1] [0:31] $end
$upscope $end
$upscope $end
$upscope $end
$scope module mips_tb $end
$scope module mips $end
$scope module fetch $end
$var reg 32 # \iram[2] [0:31] $end
$upscope $end
$upscope $end
$upscope $end
$scope module mips_tb $end
$scope module mips $end
$scope module fetch $end
$var reg 32 $ \iram[3] [0:31] $end
$upscope $end
$upscope $end
$upscope $end
$scope module mips_tb $end
$scope module mips $end
$scope module fetch $end
$var reg 32 % \iram[4] [0:31] $end
$upscope $end
$upscope $end
$upscope $end
$scope module mips_tb $end
$scope module mips $end
$scope module fetch $end
$var reg 32 & \iram[5] [0:31] $end
$upscope $end
$upscope $end
$upscope $end
$scope module mips_tb $end
$scope module mips $end
$scope module fetch $end
$var reg 32 ' \iram[6] [0:31] $end
$upscope $end
$upscope $end
$upscope $end
$scope module mips_tb $end
$scope module mips $end
$scope module fetch $end
$var reg 32 ( \iram[7] [0:31] $end
$upscope $end
$upscope $end
$upscope $end
$scope module mips_tb $end
$scope module mips $end
$scope module decode $end
$var reg 32 ) \register_array[0] [31:0] $end
$upscope $end
$upscope $end
$upscope $end
$scope module mips_tb $end
$scope module mips $end
$scope module decode $end
$var reg 32 * \register_array[1] [31:0] $end
$upscope $end
$upscope $end
$upscope $end
$scope module mips_tb $end
$scope module mips $end
$scope module decode $end
$var reg 32 + \register_array[2] [31:0] $end
$upscope $end
$upscope $end
$upscope $end
$scope module mips_tb $end
$scope module mips $end
$scope module decode $end
$var reg 32 , \register_array[3] [31:0] $end
$upscope $end
$upscope $end
$upscope $end
$scope module mips_tb $end
$scope module mips $end
$scope module decode $end
$var reg 32 - \register_array[4] [31:0] $end
$upscope $end
$upscope $end
$upscope $end
$scope module mips_tb $end
$scope module mips $end
$scope module decode $end
$var reg 32 . \register_array[5] [31:0] $end
$upscope $end
$upscope $end
$upscope $end
$scope module mips_tb $end
$scope module mips $end
$scope module decode $end
$var reg 32 / \register_array[6] [31:0] $end
$upscope $end
$upscope $end
$upscope $end
$scope module mips_tb $end
$scope module mips $end
$scope module decode $end
$var reg 32 0 \register_array[7] [31:0] $end
$upscope $end
$upscope $end
$upscope $end
$scope module mips_tb $end
$scope module mips $end
$scope module decode $end
$var reg 32 1 \register_array[8] [31:0] $end
$upscope $end
$upscope $end
$upscope $end
$scope module mips_tb $end
$scope module mips $end
$scope module decode $end
$var reg 32 2 \register_array[9] [31:0] $end
$upscope $end
$upscope $end
$upscope $end
$scope module mips_tb $end
$scope module mips $end
$scope module decode $end
$var reg 32 3 \register_array[10] [31:0] $end
$upscope $end
$upscope $end
$upscope $end
$scope module mips_tb $end
$scope module mips $end
$scope module decode $end
$var reg 32 4 \register_array[11] [31:0] $end
$upscope $end
$upscope $end
$upscope $end
$scope module mips_tb $end
$scope module mips $end
$scope module decode $end
$var reg 32 5 \register_array[12] [31:0] $end
$upscope $end
$upscope $end
$upscope $end
$scope module mips_tb $end
$scope module mips $end
$scope module decode $end
$var reg 32 6 \register_array[13] [31:0] $end
$upscope $end
$upscope $end
$upscope $end
$scope module mips_tb $end
$scope module mips $end
$scope module decode $end
$var reg 32 7 \register_array[14] [31:0] $end
$upscope $end
$upscope $end
$upscope $end
$scope module mips_tb $end
$scope module mips $end
$scope module decode $end
$var reg 32 8 \register_array[15] [31:0] $end
$upscope $end
$upscope $end
$upscope $end
$scope module mips_tb $end
$scope module mips $end
$scope module decode $end
$var reg 32 9 \register_array[16] [31:0] $end
$upscope $end
$upscope $end
$upscope $end
$scope module mips_tb $end
$scope module mips $end
$scope module decode $end
$var reg 32 : \register_array[17] [31:0] $end
$upscope $end
$upscope $end
$upscope $end
$scope module mips_tb $end
$scope module mips $end
$scope module decode $end
$var reg 32 ; \register_array[18] [31:0] $end
$upscope $end
$upscope $end
$upscope $end
$scope module mips_tb $end
$scope module mips $end
$scope module decode $end
$var reg 32 < \register_array[19] [31:0] $end
$upscope $end
$upscope $end
$upscope $end
$scope module mips_tb $end
$scope module mips $end
$scope module decode $end
$var reg 32 = \register_array[20] [31:0] $end
$upscope $end
$upscope $end
$upscope $end
$scope module mips_tb $end
$scope module mips $end
$scope module decode $end
$var reg 32 > \register_array[21] [31:0] $end
$upscope $end
$upscope $end
$upscope $end
$scope module mips_tb $end
$scope module mips $end
$scope module decode $end
$var reg 32 ? \register_array[22] [31:0] $end
$upscope $end
$upscope $end
$upscope $end
$scope module mips_tb $end
$scope module mips $end
$scope module decode $end
$var reg 32 @ \register_array[23] [31:0] $end
$upscope $end
$upscope $end
$upscope $end
$scope module mips_tb $end
$scope module mips $end
$scope module decode $end
$var reg 32 A \register_array[24] [31:0] $end
$upscope $end
$upscope $end
$upscope $end
$scope module mips_tb $end
$scope module mips $end
$scope module decode $end
$var reg 32 B \register_array[25] [31:0] $end
$upscope $end
$upscope $end
$upscope $end
$scope module mips_tb $end
$scope module mips $end
$scope module decode $end
$var reg 32 C \register_array[26] [31:0] $end
$upscope $end
$upscope $end
$upscope $end
$scope module mips_tb $end
$scope module mips $end
$scope module decode $end
$var reg 32 D \register_array[27] [31:0] $end
$upscope $end
$upscope $end
$upscope $end
$scope module mips_tb $end
$scope module mips $end
$scope module decode $end
$var reg 32 E \register_array[28] [31:0] $end
$upscope $end
$upscope $end
$upscope $end
$scope module mips_tb $end
$scope module mips $end
$scope module decode $end
$var reg 32 F \register_array[29] [31:0] $end
$upscope $end
$upscope $end
$upscope $end
$scope module mips_tb $end
$scope module mips $end
$scope module decode $end
$var reg 32 G \register_array[30] [31:0] $end
$upscope $end
$upscope $end
$upscope $end
$scope module mips_tb $end
$scope module mips $end
$scope module decode $end
$var reg 32 H \register_array[31] [31:0] $end
$upscope $end
$upscope $end
$upscope $end
$scope module mips_tb $end
$var reg 1 I clock $end
$var reg 1 J reset $end
$var integer 32 K i [31:0] $end
$scope module mips $end
$var wire 1 I clock $end
$var wire 1 J reset $end
$var wire 5 L wreg_rt [4:0] $end
$var wire 5 M wreg_rd [4:0] $end
$var wire 5 N wreg_address [4:0] $end
$var wire 32 O sign_extend [31:0] $end
$var wire 1 P regwrite $end
$var wire 32 Q register_rt [31:0] $end
$var wire 32 R register_rs [31:0] $end
$var wire 1 S regdst $end
$var wire 32 T read_data [31:0] $end
$var wire 32 U pc4 [31:0] $end
$var wire 1 V memwrite $end
$var wire 1 W memtoreg $end
$var wire 1 X memread $end
$var wire 32 Y instruction [31:0] $end
$var wire 1 Z do_branch $end
$var wire 32 [ branch_addr [31:0] $end
$var wire 1 \ branch $end
$var wire 1 ] alusrc $end
$var wire 2 ^ aluop [1:0] $end
$var wire 32 _ alu_result [31:0] $end
$scope module control $end
$var wire 1 ] alusrc $end
$var wire 1 \ branch $end
$var wire 1 X memread $end
$var wire 1 W memtoreg $end
$var wire 1 V memwrite $end
$var wire 6 ` opcode [5:0] $end
$var wire 1 S regdst $end
$var wire 1 P regwrite $end
$var wire 1 a sw $end
$var wire 1 b rformat $end
$var wire 1 c lw $end
$var wire 1 d j $end
$var wire 1 e beq $end
$var wire 2 f aluop [1:0] $end
$upscope $end
$scope module decode $end
$var wire 1 I clock $end
$var wire 1 W memtoreg $end
$var wire 32 g register_rs [31:0] $end
$var wire 32 h register_rt [31:0] $end
$var wire 1 P regwrite $end
$var wire 1 J reset $end
$var wire 32 i write_data [31:0] $end
$var wire 5 j wreg_rt [4:0] $end
$var wire 5 k wreg_rd [4:0] $end
$var wire 5 l wreg_address [4:0] $end
$var wire 32 m sign_extend [31:0] $end
$var wire 5 n read_register_2_address [4:0] $end
$var wire 5 o read_register_1_address [4:0] $end
$var wire 32 p memory_data [31:0] $end
$var wire 16 q instruction_immediate_value [15:0] $end
$var wire 32 r instruction [31:0] $end
$var wire 32 s alu_result [31:0] $end
$var integer 32 t i [31:0] $end
$upscope $end
$scope module execute $end
$var wire 32 u ainput [31:0] $end
$var wire 2 v aluop [1:0] $end
$var wire 1 ] alusrc $end
$var wire 1 \ branch $end
$var wire 1 Z do_branch $end
$var wire 6 w function_opcode [5:0] $end
$var wire 1 S regdst $end
$var wire 32 x register_rs [31:0] $end
$var wire 32 y register_rt [31:0] $end
$var wire 32 z sign_extend [31:0] $end
$var wire 5 { wreg_rd [4:0] $end
$var wire 5 | wreg_rt [4:0] $end
$var wire 1 } zero $end
$var wire 5 ~ wreg_address [4:0] $end
$var wire 32 !" pc4 [31:0] $end
$var wire 32 "" branch_addr [31:0] $end
$var wire 32 #" binput [31:0] $end
$var reg 3 $" alu_ctl [2:0] $end
$var reg 32 %" alu_result [31:0] $end
$upscope $end
$scope module fetch $end
$var wire 32 &" branch_addr [31:0] $end
$var wire 1 I clock $end
$var wire 1 Z do_branch $end
$var wire 32 '" instruction [31:0] $end
$var wire 1 J reset $end
$var wire 32 (" pc4 [31:0] $end
$var wire 32 )" next_pc [31:0] $end
$var reg 32 *" pc [31:0] $end
$upscope $end
$scope module memory $end
$var wire 32 +" address [31:0] $end
$var wire 1 I clock $end
$var wire 1 V memwrite $end
$var wire 32 ," write_data [31:0] $end
$var wire 32 -" read_data [31:0] $end
$var integer 32 ." i [31:0] $end
$scope begin genblk1[0] $end
$upscope $end
$scope begin genblk1[1] $end
$upscope $end
$scope begin genblk1[2] $end
$upscope $end
$scope begin genblk1[3] $end
$upscope $end
$scope begin genblk1[4] $end
$upscope $end
$scope begin genblk1[5] $end
$upscope $end
$scope begin genblk1[6] $end
$upscope $end
$scope begin genblk1[7] $end
$upscope $end
$scope begin genblk1[8] $end
$upscope $end
$scope begin genblk1[9] $end
$upscope $end
$scope begin genblk1[10] $end
$upscope $end
$scope begin genblk1[11] $end
$upscope $end
$scope begin genblk1[12] $end
$upscope $end
$scope begin genblk1[13] $end
$upscope $end
$scope begin genblk1[14] $end
$upscope $end
$scope begin genblk1[15] $end
$upscope $end
$scope begin genblk1[16] $end
$upscope $end
$scope begin genblk1[17] $end
$upscope $end
$scope begin genblk1[18] $end
$upscope $end
$scope begin genblk1[19] $end
$upscope $end
$scope begin genblk1[20] $end
$upscope $end
$scope begin genblk1[21] $end
$upscope $end
$scope begin genblk1[22] $end
$upscope $end
$scope begin genblk1[23] $end
$upscope $end
$scope begin genblk1[24] $end
$upscope $end
$scope begin genblk1[25] $end
$upscope $end
$scope begin genblk1[26] $end
$upscope $end
$scope begin genblk1[27] $end
$upscope $end
$scope begin genblk1[28] $end
$upscope $end
$scope begin genblk1[29] $end
$upscope $end
$scope begin genblk1[30] $end
$upscope $end
$scope begin genblk1[31] $end
$upscope $end
$scope begin genblk2[0] $end
$upscope $end
$scope begin genblk2[1] $end
$upscope $end
$scope begin genblk2[2] $end
$upscope $end
$scope begin genblk2[3] $end
$upscope $end
$scope begin genblk2[4] $end
$upscope $end
$scope begin genblk2[5] $end
$upscope $end
$scope begin genblk2[6] $end
$upscope $end
$scope begin genblk2[7] $end
$upscope $end
$scope begin genblk2[8] $end
$upscope $end
$scope begin genblk2[9] $end
$upscope $end
$scope begin genblk2[10] $end
$upscope $end
$scope begin genblk2[11] $end
$upscope $end
$scope begin genblk2[12] $end
$upscope $end
$scope begin genblk2[13] $end
$upscope $end
$scope begin genblk2[14] $end
$upscope $end
$scope begin genblk2[15] $end
$upscope $end
$scope begin genblk2[16] $end
$upscope $end
$scope begin genblk2[17] $end
$upscope $end
$scope begin genblk2[18] $end
$upscope $end
$scope begin genblk2[19] $end
$upscope $end
$scope begin genblk2[20] $end
$upscope $end
$scope begin genblk2[21] $end
$upscope $end
$scope begin genblk2[22] $end
$upscope $end
$scope begin genblk2[23] $end
$upscope $end
$scope begin genblk2[24] $end
$upscope $end
$scope begin genblk2[25] $end
$upscope $end
$scope begin genblk2[26] $end
$upscope $end
$scope begin genblk2[27] $end
$upscope $end
$scope begin genblk2[28] $end
$upscope $end
$scope begin genblk2[29] $end
$upscope $end
$scope begin genblk2[30] $end
$upscope $end
$scope begin genblk2[31] $end
$upscope $end
$upscope $end
$upscope $end
$upscope $end
$enddefinitions $end
#0
$dumpvars
b100000 ."
bx -"
bx ,"
bx +"
bx *"
bx )"
bx ("
bx '"
bx &"
bx %"
bx $"
bx #"
bx ""
bx !"
bx ~
x}
bx |
bx {
bx z
bx y
bx x
bx w
bx v
bx u
b100000 t
bx s
bx r
bx q
bx p
bx o
bx n
bx m
bx l
bx k
bx j
bx i
bx h
bx g
bx f
xe
xd
xc
xb
xa
bx `
bx _
bx ^
x]
x\
bx [
xZ
bx Y
xX
xW
xV
bx U
bx T
xS
bx R
bx Q
xP
bx O
bx N
bx M
bx L
b100000 K
1J
0I
b11111 H
b11110 G
b11101 F
b11100 E
b11011 D
b11010 C
b11001 B
b11000 A
b10111 @
b10110 ?
b10101 >
b10100 =
b10011 <
b10010 ;
b10001 :
b10000 9
b1111 8
b1110 7
b1101 6
b1100 5
b1011 4
b1010 3
b1001 2
b1000 1
b111 0
b110 /
b101 .
b100 -
b11 ,
b10 +
b1 *
b0 )
b10000101000011111111111111001 (
b100010010100000000101010 '
b101000010010100000100101 &
b101000010010100000100100 %
b111001010010100000100010 $
b100000110010100000100000 #
b10001100000001000000000000000000 "
b10101100000000110000000000000000 !
$end
#1
b0 T
b0 p
b0 -"
1}
b0 i
b0 _
b0 s
b0 %"
b0 +"
b100 )"
b100 [
b100 ""
b100 &"
0P
1]
0Z
b11 N
b11 l
b11 ~
b0 #"
b10 $"
0S
0b
0X
0W
0c
1V
1a
b0 ^
b0 f
b0 v
0\
0e
0d
b11 L
b11 j
b11 |
b0 M
b0 k
b0 {
b0 O
b0 m
b0 z
b0 q
b11 Q
b11 h
b11 y
b11 ,"
b11 n
b0 u
b0 R
b0 g
b0 x
b0 o
b0 w
b101011 `
b10101100000000110000000000000000 Y
b10101100000000110000000000000000 r
b10101100000000110000000000000000 '"
b100 U
b100 !"
b100 ("
b0 *"
1I
#2
0I
0J
#3
b11 i
1P
b100 N
b100 l
b100 ~
1X
1W
1c
0V
0a
b100 L
b100 j
b100 |
b100 Q
b100 h
b100 y
b100 ,"
b100 n
b100011 `
b11 T
b11 p
b11 -"
b10001100000001000000000000000000 Y
b10001100000001000000000000000000 r
b10001100000001000000000000000000 '"
b1000 )"
b1000 [
b1000 ""
b1000 &"
b1000 U
b1000 !"
b1000 ("
b100 *"
1I
#4
0I
#5
b0 T
b0 p
b0 -"
b110 i
0}
0]
b101 N
b101 l
b101 ~
b11 #"
b110 _
b110 s
b110 %"
b110 +"
b10 ^
b10 f
b10 v
1S
1b
0X
0W
0c
b11 L
b11 j
b11 |
b101 M
b101 k
b101 {
b10100000100000 O
b10100000100000 m
b10100000100000 z
b10100000100000 q
b11 n
b11 u
b11 R
b11 g
b11 x
b100 o
b100000 w
b0 `
b100000110010100000100000 Y
b100000110010100000100000 r
b100000110010100000100000 '"
b1100 )"
b1010000010001100 [
b1010000010001100 ""
b1010000010001100 &"
b1100 U
b1100 !"
b1100 ("
b1000 *"
b11 -
b11 Q
b11 h
b11 y
b11 ,"
1I
#6
0I
#7
b11 T
b11 p
b11 -"
b1 i
b110 #"
b1 _
b1 s
b1 %"
b1 +"
b110 $"
b101 L
b101 j
b101 |
b10100000100010 O
b10100000100010 m
b10100000100010 z
b10100000100010 q
b110 Q
b110 h
b110 y
b110 ,"
b101 n
b111 u
b111 R
b111 g
b111 x
b111 o
b100010 w
b111001010010100000100010 Y
b111001010010100000100010 r
b111001010010100000100010 '"
b10000 )"
b110 .
b1010000010011000 [
b1010000010011000 ""
b1010000010011000 &"
b10000 U
b10000 !"
b10000 ("
b1100 *"
1I
#8
0I
#9
b11 T
b11 p
b11 -"
b0 $"
b1 i
b1 L
b1 j
b1 |
b10100000100100 O
b10100000100100 m
b10100000100100 z
b10100000100100 q
b1 n
b1 u
b1 R
b1 g
b1 x
b101 o
b100100 w
b1 _
b1 s
b1 %"
b1 +"
b101000010010100000100100 Y
b101000010010100000100100 r
b101000010010100000100100 '"
b10100 )"
b1 #"
b1010000010100100 [
b1010000010100100 ""
b1010000010100100 &"
b10100 U
b10100 !"
b10100 ("
b10000 *"
b1 .
b1 Q
b1 h
b1 y
b1 ,"
1I
#10
0I
#11
b1 $"
b10100000100101 O
b10100000100101 m
b10100000100101 z
b10100000100101 q
b100101 w
b101000010010100000100101 Y
b101000010010100000100101 r
b101000010010100000100101 '"
b11000 )"
b1 .
b1010000010101100 [
b1010000010101100 ""
b1010000010101100 &"
b11000 U
b11000 !"
b11000 ("
b10100 *"
1I
#12
0I
#13
0}
b1 i
b1000 N
b1000 l
b1000 ~
b1001 #"
b1 _
b1 s
b1 %"
b1 +"
b111 $"
b1001 L
b1001 j
b1001 |
b1000 M
b1000 k
b1000 {
b100000000101010 O
b100000000101010 m
b100000000101010 z
b100000000101010 q
b1001 Q
b1001 h
b1001 y
b1001 ,"
b1001 n
b11 u
b11 R
b11 g
b11 x
b100 o
b101010 w
b100010010100000000101010 Y
b100010010100000000101010 r
b100010010100000000101010 '"
b11100 )"
b10000000011000100 [
b10000000011000100 ""
b10000000011000100 &"
b11100 U
b11100 !"
b11100 ("
b11000 *"
b1 .
1I
#14
0I
#15
1Z
1}
b11 T
b11 p
b11 -"
b0 i
0P
b1 N
b1 l
b1 ~
b1 #"
b0 _
b0 s
b0 %"
b0 +"
b110 $"
0S
0b
b1 ^
b1 f
b1 v
1\
1e
b1 L
b1 j
b1 |
b11111 M
b11111 k
b11111 {
b11111111111111111111111111111001 O
b11111111111111111111111111111001 m
b11111111111111111111111111111001 z
b1111111111111001 q
b1 Q
b1 h
b1 y
b1 ,"
b1 n
b1 u
b1 R
b1 g
b1 x
b101 o
b111001 w
b100 `
b10000101000011111111111111001 Y
b10000101000011111111111111001 r
b10000101000011111111111111001 '"
b100 )"
b1 1
b100 [
b100 ""
b100 &"
b100000 U
b100000 !"
b100000 ("
b11100 *"
1I
#16
0I
#17
1}
b11 i
1P
1]
0Z
b100 N
b100 l
b100 ~
b0 #"
b0 _
b0 s
b0 %"
b0 +"
b10 $"
1X
1W
1c
b0 ^
b0 f
b0 v
0\
0e
b100 L
b100 j
b100 |
b0 M
b0 k
b0 {
b0 O
b0 m
b0 z
b0 q
b11 Q
b11 h
b11 y
b11 ,"
b100 n
b0 u
b0 R
b0 g
b0 x
b0 o
b0 w
b100011 `
b10001100000001000000000000000000 Y
b10001100000001000000000000000000 r
b10001100000001000000000000000000 '"
b1000 )"
b1000 [
b1000 ""
b1000 &"
b1000 U
b1000 !"
b1000 ("
b100 *"
1I
#18
0I
#19
b0 T
b0 p
b0 -"
b110 i
0}
0]
b101 N
b101 l
b101 ~
b11 #"
b110 _
b110 s
b110 %"
b110 +"
b10 ^
b10 f
b10 v
1S
1b
0X
0W
0c
b11 L
b11 j
b11 |
b101 M
b101 k
b101 {
b10100000100000 O
b10100000100000 m
b10100000100000 z
b10100000100000 q
b11 n
b11 u
b11 R
b11 g
b11 x
b100 o
b100000 w
b0 `
b100000110010100000100000 Y
b100000110010100000100000 r
b100000110010100000100000 '"
b1100 )"
b11 -
b1010000010001100 [
b1010000010001100 ""
b1010000010001100 &"
b1100 U
b1100 !"
b1100 ("
b1000 *"
1I
#20
0I
#21
b11 T
b11 p
b11 -"
b1 i
b110 #"
b1 _
b1 s
b1 %"
b1 +"
b110 $"
b101 L
b101 j
b101 |
b10100000100010 O
b10100000100010 m
b10100000100010 z
b10100000100010 q
b110 Q
b110 h
b110 y
b110 ,"
b101 n
b111 u
b111 R
b111 g
b111 x
b111 o
b100010 w
b111001010010100000100010 Y
b111001010010100000100010 r
b111001010010100000100010 '"
b10000 )"
b1010000010011000 [
b1010000010011000 ""
b1010000010011000 &"
b10000 U
b10000 !"
b10000 ("
b1100 *"
b110 .
1I
#22
0I
#23
0}
b1 i
b0 $"
b1 _
b1 s
b1 %"
b1 +"
b1 L
b1 j
b1 |
b10100000100100 O
b10100000100100 m
b10100000100100 z
b10100000100100 q
b1 n
b1 u
b1 R
b1 g
b1 x
b101 o
b100100 w
b1 #"
b101000010010100000100100 Y
b101000010010100000100100 r
b101000010010100000100100 '"
b10100 )"
b1 .
b1 Q
b1 h
b1 y
b1 ,"
b1010000010100100 [
b1010000010100100 ""
b1010000010100100 &"
b10100 U
b10100 !"
b10100 ("
b10000 *"
1I
#24
0I
#25
b1 $"
b10100000100101 O
b10100000100101 m
b10100000100101 z
b10100000100101 q
b100101 w
b101000010010100000100101 Y
b101000010010100000100101 r
b101000010010100000100101 '"
b11000 )"
b1010000010101100 [
b1010000010101100 ""
b1010000010101100 &"
b11000 U
b11000 !"
b11000 ("
b10100 *"
b1 .
1I
#26
0I
#27
0}
b1 i
b1000 N
b1000 l
b1000 ~
b1001 #"
b1 _
b1 s
b1 %"
b1 +"
b111 $"
b1001 L
b1001 j
b1001 |
b1000 M
b1000 k
b1000 {
b100000000101010 O
b100000000101010 m
b100000000101010 z
b100000000101010 q
b1001 Q
b1001 h
b1001 y
b1001 ,"
b1001 n
b11 u
b11 R
b11 g
b11 x
b100 o
b101010 w
b100010010100000000101010 Y
b100010010100000000101010 r
b100010010100000000101010 '"
b11100 )"
b1 .
b10000000011000100 [
b10000000011000100 ""
b10000000011000100 &"
b11100 U
b11100 !"
b11100 ("
b11000 *"
1I
#28
0I
#29
1Z
1}
b11 T
b11 p
b11 -"
b0 i
0P
b1 N
b1 l
b1 ~
b1 #"
b0 _
b0 s
b0 %"
b0 +"
b110 $"
0S
0b
b1 ^
b1 f
b1 v
1\
1e
b1 L
b1 j
b1 |
b11111 M
b11111 k
b11111 {
b11111111111111111111111111111001 O
b11111111111111111111111111111001 m
b11111111111111111111111111111001 z
b1111111111111001 q
b1 Q
b1 h
b1 y
b1 ,"
b1 n
b1 u
b1 R
b1 g
b1 x
b101 o
b111001 w
b100 `
b10000101000011111111111111001 Y
b10000101000011111111111111001 r
b10000101000011111111111111001 '"
b100 )"
b100 [
b100 ""
b100 &"
b100000 U
b100000 !"
b100000 ("
b11100 *"
b1 1
1I
#30
0I
#31
1}
b11 i
1P
1]
0Z
b100 N
b100 l
b100 ~
b0 #"
b0 _
b0 s
b0 %"
b0 +"
b10 $"
1X
1W
1c
b0 ^
b0 f
b0 v
0\
0e
b100 L
b100 j
b100 |
b0 M
b0 k
b0 {
b0 O
b0 m
b0 z
b0 q
b11 Q
b11 h
b11 y
b11 ,"
b100 n
b0 u
b0 R
b0 g
b0 x
b0 o
b0 w
b100011 `
b10001100000001000000000000000000 Y
b10001100000001000000000000000000 r
b10001100000001000000000000000000 '"
b1000 )"
b1000 [
b1000 ""
b1000 &"
b1000 U
b1000 !"
b1000 ("
b100 *"
1I
#32
0I
#33
b0 T
b0 p
b0 -"
b110 i
0}
0]
b101 N
b101 l
b101 ~
b11 #"
b110 _
b110 s
b110 %"
b110 +"
b10 ^
b10 f
b10 v
1S
1b
0X
0W
0c
b11 L
b11 j
b11 |
b101 M
b101 k
b101 {
b10100000100000 O
b10100000100000 m
b10100000100000 z
b10100000100000 q
b11 n
b11 u
b11 R
b11 g
b11 x
b100 o
b100000 w
b0 `
b100000110010100000100000 Y
b100000110010100000100000 r
b100000110010100000100000 '"
b1100 )"
b1010000010001100 [
b1010000010001100 ""
b1010000010001100 &"
b1100 U
b1100 !"
b1100 ("
b1000 *"
b11 -
1I
#34
0I
#35
b11 T
b11 p
b11 -"
b1 i
b110 #"
b1 _
b1 s
b1 %"
b1 +"
b110 $"
b101 L
b101 j
b101 |
b10100000100010 O
b10100000100010 m
b10100000100010 z
b10100000100010 q
b110 Q
b110 h
b110 y
b110 ,"
b101 n
b111 u
b111 R
b111 g
b111 x
b111 o
b100010 w
b111001010010100000100010 Y
b111001010010100000100010 r
b111001010010100000100010 '"
b10000 )"
b110 .
b1010000010011000 [
b1010000010011000 ""
b1010000010011000 &"
b10000 U
b10000 !"
b10000 ("
b1100 *"
1I
#36
0I
#37
b11 T
b11 p
b11 -"
b0 $"
b1 i
b1 L
b1 j
b1 |
b10100000100100 O
b10100000100100 m
b10100000100100 z
b10100000100100 q
b1 n
b1 u
b1 R
b1 g
b1 x
b101 o
b100100 w
b1 _
b1 s
b1 %"
b1 +"
b101000010010100000100100 Y
b101000010010100000100100 r
b101000010010100000100100 '"
b10100 )"
b1 #"
b1010000010100100 [
b1010000010100100 ""
b1010000010100100 &"
b10100 U
b10100 !"
b10100 ("
b10000 *"
b1 .
b1 Q
b1 h
b1 y
b1 ,"
1I
#38
0I
#39
b1 $"
b10100000100101 O
b10100000100101 m
b10100000100101 z
b10100000100101 q
b100101 w
b101000010010100000100101 Y
b101000010010100000100101 r
b101000010010100000100101 '"
b11000 )"
b1 .
b1010000010101100 [
b1010000010101100 ""
b1010000010101100 &"
b11000 U
b11000 !"
b11000 ("
b10100 *"
1I
#40
0I
#41
0}
b1 i
b1000 N
b1000 l
b1000 ~
b1001 #"
b1 _
b1 s
b1 %"
b1 +"
b111 $"
b1001 L
b1001 j
b1001 |
b1000 M
b1000 k
b1000 {
b100000000101010 O
b100000000101010 m
b100000000101010 z
b100000000101010 q
b1001 Q
b1001 h
b1001 y
b1001 ,"
b1001 n
b11 u
b11 R
b11 g
b11 x
b100 o
b101010 w
b100010010100000000101010 Y
b100010010100000000101010 r
b100010010100000000101010 '"
b11100 )"
b10000000011000100 [
b10000000011000100 ""
b10000000011000100 &"
b11100 U
b11100 !"
b11100 ("
b11000 *"
b1 .
1I
#42
0I
#43
1Z
1}
b11 T
b11 p
b11 -"
b0 i
0P
b1 N
b1 l
b1 ~
b1 #"
b0 _
b0 s
b0 %"
b0 +"
b110 $"
0S
0b
b1 ^
b1 f
b1 v
1\
1e
b1 L
b1 j
b1 |
b11111 M
b11111 k
b11111 {
b11111111111111111111111111111001 O
b11111111111111111111111111111001 m
b11111111111111111111111111111001 z
b1111111111111001 q
b1 Q
b1 h
b1 y
b1 ,"
b1 n
b1 u
b1 R
b1 g
b1 x
b101 o
b111001 w
b100 `
b10000101000011111111111111001 Y
b10000101000011111111111111001 r
b10000101000011111111111111001 '"
b100 )"
b1 1
b100 [
b100 ""
b100 &"
b100000 U
b100000 !"
b100000 ("
b11100 *"
1I
#44
0I
#45
1}
b11 i
1P
1]
0Z
b100 N
b100 l
b100 ~
b0 #"
b0 _
b0 s
b0 %"
b0 +"
b10 $"
1X
1W
1c
b0 ^
b0 f
b0 v
0\
0e
b100 L
b100 j
b100 |
b0 M
b0 k
b0 {
b0 O
b0 m
b0 z
b0 q
b11 Q
b11 h
b11 y
b11 ,"
b100 n
b0 u
b0 R
b0 g
b0 x
b0 o
b0 w
b100011 `
b10001100000001000000000000000000 Y
b10001100000001000000000000000000 r
b10001100000001000000000000000000 '"
b1000 )"
b1000 [
b1000 ""
b1000 &"
b1000 U
b1000 !"
b1000 ("
b100 *"
1I
#46
0I
#47
b0 T
b0 p
b0 -"
b110 i
0}
0]
b101 N
b101 l
b101 ~
b11 #"
b110 _
b110 s
b110 %"
b110 +"
b10 ^
b10 f
b10 v
1S
1b
0X
0W
0c
b11 L
b11 j
b11 |
b101 M
b101 k
b101 {
b10100000100000 O
b10100000100000 m
b10100000100000 z
b10100000100000 q
b11 n
b11 u
b11 R
b11 g
b11 x
b100 o
b100000 w
b0 `
b100000110010100000100000 Y
b100000110010100000100000 r
b100000110010100000100000 '"
b1100 )"
b11 -
b1010000010001100 [
b1010000010001100 ""
b1010000010001100 &"
b1100 U
b1100 !"
b1100 ("
b1000 *"
1I
#48
0I
#49
b11 T
b11 p
b11 -"
b1 i
b110 #"
b1 _
b1 s
b1 %"
b1 +"
b110 $"
b101 L
b101 j
b101 |
b10100000100010 O
b10100000100010 m
b10100000100010 z
b10100000100010 q
b110 Q
b110 h
b110 y
b110 ,"
b101 n
b111 u
b111 R
b111 g
b111 x
b111 o
b100010 w
b111001010010100000100010 Y
b111001010010100000100010 r
b111001010010100000100010 '"
b10000 )"
b1010000010011000 [
b1010000010011000 ""
b1010000010011000 &"
b10000 U
b10000 !"
b10000 ("
b1100 *"
b110 .
1I
